[
  {
    "name": "אלמוג יצחק סוכנות אלמוגים",
    "description": "\"\"ריף אלמוגים\" הינה חברה בבעלות פרטית הפועלת למען לקוחותיה במישור הכספי בכל טווחי\n ההשקעה.",
    "location": "פתח תקווה",
    "price": 483,
    "images": "agent_picture.png"
  },
  {
    "name": "אלמוג יצחק סוכנות אלמוגים",
    "description": "\"\"ריף אלמוגים\" הינה חברה בבעלות פרטית הפועלת למען לקוחותיה במישור הכספי בכל טווחי\n ההשקעה.",
    "location": "פתח תקווה",
    "price": 483,
    "images": "agent_picture.png"
  },
  {
    "name": "אלמוג יצחק סוכנות אלמוגים",
    "description": "\"\"ריף אלמוגים\" הינה חברה בבעלות פרטית הפועלת למען לקוחותיה במישור הכספי בכל טווחי\n ההשקעה.",
    "location": "פתח תקווה",
    "price": 483,
    "images": "agent_picture.png"
  },
  {
    "name": "אלמוג יצחק סוכנות אלמוגים",
    "description": "\"\"ריף אלמוגים\" הינה חברה בבעלות פרטית הפועלת למען לקוחותיה במישור הכספי בכל טווחי\n ההשקעה.",
    "location": "פתח תקווה",
    "price": 483,
    "images": "agent_picture.png"
  }
]
